<svg width="16" height="13" viewBox="0 0 16 13" fill="none" xmlns="http://www.w3.org/2000/svg">
<path fill-rule="evenodd" clip-rule="evenodd" d="M15.6171 1.65999C15.0701 1.89992 14.4873 2.05896 13.8796 2.13618C14.5047 1.76295 14.9818 1.17646 15.2061 0.469534C14.6233 0.817019 13.9798 1.06247 13.2941 1.19944C12.7407 0.610183 11.9519 0.245232 11.0915 0.245232C9.42208 0.245232 8.0781 1.60024 8.0781 3.26137C8.0781 3.50038 8.09833 3.7302 8.14797 3.94898C5.64111 3.82672 3.4229 2.62523 1.93276 0.794957C1.67261 1.24632 1.52001 1.76295 1.52001 2.31911C1.52001 3.36341 2.05778 4.28911 2.85939 4.82505C2.37493 4.81586 1.89967 4.67521 1.49703 4.45366V4.48676C1.49703 5.95208 2.54224 7.1692 3.91288 7.44957C3.66743 7.51668 3.39992 7.54886 3.1223 7.54886C2.92925 7.54886 2.73437 7.53782 2.55143 7.49738C2.94212 8.69151 4.05077 9.56942 5.369 9.59792C4.3431 10.4004 3.04049 10.884 1.63032 10.884C1.38304 10.884 1.14586 10.8729 0.908691 10.8426C2.2444 11.704 3.82738 12.1958 5.53447 12.1958C11.0832 12.1958 14.1168 7.59942 14.1168 3.61529C14.1168 3.48199 14.1122 3.35329 14.1058 3.22551C14.7042 2.80081 15.2071 2.27039 15.6171 1.65999" fill="white"/>
</svg>
